{
  "attribute": {
    "id": 1,
    "name": "Age",
    "type": "string",
    "date_modified": {"json_class":"Time","s":0,"n":0},
    "date_created": {"json_class":"Time","s":0,"n":0}
  },
  "attribute_value": {
    "attribute_id": 0,
    "attribute_value": "string",
    "id": 0,
    "customer_id": 0,
    "date_modified": {"json_class":"Time","s":0,"n":0},
    "date_created": {"json_class":"Time","s":0,"n":0}
  },
  "customer": {
    "id": 1,
    "email": "string@example.com",
    "first_name": "string",
    "last_name": "string",
    "company": "string",
    "phone": "string",
    "notes": "string",
    "tax_exempt_category": "string",
    "customer_group_id": 0,
    "addresses": [
      {
        "first_name": "string",
        "last_name": "string",
        "company": "string",
        "address1": "Addr1",
        "address2": "",
        "city": "string",
        "state_or_province": "string",
        "postal_code": "string",
        "country_code": "st",
        "phone": "string",
        "address_type": "residential",
        "customer_id": 0,
        "id": 0,
        "country": "string"
      }
    ],
    "store_credit_amounts": [
      {
        "amount": 43.15
      }
    ],
    "form_fields": [
      { "name": "string", "value": "string" }
    ],
    "accepts_product_review_abandoned_cart_emails": true,
    "channel_ids": [],
    "shopper_profile_id": "82511e54-4040-40fe-b742-2b25655f205b",
    "segment_ids": [],
    "date_modified": {"json_class":"Time","s":0,"n":0},
    "date_created": {"json_class":"Time","s":0,"n":0}
  },
  "metafield": {
    "id": 0,
    "owner_client_id": "X123",
    "key": "Staff Name",
    "value": "Ronaldo",
    "namespace": "Sales Department",
    "permission_set": "app_only",
    "resource_type": "cart",
    "resource_id": 1,
    "description": "order",
    "date_modified": {"json_class":"Time","s":0,"n":0},
    "date_created": {"json_class":"Time","s":0,"n":0}
  },
  "inventory": {
    "identity": {
      "sku": "RE-130",
      "variant_id": 79,
      "product_id": 120,
      "sku_id": 0
    },
    "locations": [
      {
        "location_id": 1,
        "location_code": "BC-LOCATION-1",
        "location_name": "Default location",
        "available_to_sell": 10,
        "total_inventory_onhand": 11,
        "location_enabled": true,
        "settings": {
          "safety_stock": 1,
          "is_in_stock": true,
          "warning_level": 1,
          "bin_picking_number": "1"
        }
      }
    ]
  },
  "segment": {
    "id": "497f6eca-6276-4993-bfeb-53cbbbba6f08",
    "name": "My Segment",
    "description": "Description",
    "updated_at": {"json_class":"Time","s":0,"n":0},
    "created_at": {"json_class":"Time","s":0,"n":0}
  },
  "subscriber": {
    "email": "string",
    "first_name": "string",
    "last_name": "string",
    "source": "string",
    "order_id": 1,
    "channel_id": 1,
    "id": 0,
    "date_modified": {"json_class":"Time","s":0,"n":0},
    "date_created": {"json_class":"Time","s":0,"n":0},
    "consents": []
  },
  "product": {
    "id": 0,
    "name": "string",
    "type": "physical",
    "sku": "",
    "description": "string",
    "weight": 0,
    "width": 0,
    "depth": 0,
    "height": 0,
    "price": 0.0,
    "cost_price": 0.0,
    "retail_price": 0.0,
    "sale_price": 0.0,
    "map_price": 0.0,
    "tax_class_id": 0,
    "product_tax_code": "",
    "calculated_price": 0,
    "categories": [],
    "brand_id": 0,
    "brand_name": "string",
    "option_set_id": 0,
    "option_set_display": "string",
    "inventory_level": 0,
    "inventory_warning_level": 0,
    "inventory_tracking": "none",
    "reviews_rating_sum": 0,
    "reviews_count": 0,
    "total_sold": 0,
    "fixed_cost_shipping_price": 0,
    "is_free_shipping": false,
    "is_visible": true,
    "is_featured": false,
    "related_products": [],
    "warranty": "",
    "bin_picking_number": "",
    "layout_file": "string",
    "upc": "",
    "mpn": "",
    "gtin": "",
    "search_keywords": "",
    "availability": "available",
    "availability_description": "",
    "gift_wrapping_options_type": "any",
    "gift_wrapping_options_list": [],
    "sort_order": 0,
    "condition": "New",
    "is_condition_shown": false,
    "order_quantity_minimum": 0,
    "order_quantity_maximum": 0,
    "page_title": "",
    "meta_keywords": [],
    "meta_description": "",
    "date_created": {"json_class":"Time","s":0,"n":0},
    "date_modified": {"json_class":"Time","s":0,"n":0},
    "view_count": 0,
    "preorder_release_date": {"json_class":"Time","s":0,"n":0},
    "preorder_message": "",
    "is_preorder_only": false,
    "is_price_hidden": false,
    "price_hidden_label": "",
    "custom_url": {
      "url": "string",
      "is_customized": true
    },
    "base_variant_id": 0,
    "open_graph_type": "product",
    "open_graph_title": "",
    "open_graph_description": "",
    "open_graph_use_meta_description": true,
    "open_graph_use_product_name": true,
    "open_graph_use_image": true,
    "date_last_imported": "string",
    "custom_fields": [
      {
        "id": 0,
        "name": "string",
        "value": "string"
      }
    ],
    "bulk_pricing_rules": [
      {
        "quantity_min": 0,
        "quantity_max": 0,
        "type": "string",
        "amount": 0
      }
    ],
    "images": [
      {
        "id": 0,
        "product_id": 0,
        "is_thumbnail": true,
        "sort_order": 0,
        "description": "string",
        "image_url": "string",
        "image_file": "string",
        "date_modified": {"json_class":"Time","s":0,"n":0}
      }
    ],
    "primary_image": {
      "id": 0,
      "product_id": 0,
      "is_thumbnail": true,
      "sort_order": 0,
      "description": "string",
      "image_file": "string",
      "date_modified": {"json_class":"Time","s":0,"n":0}
    },
    "videos": [
      {
        "id": 0,
        "product_id": 0,
        "title": "string",
        "description": "string",
        "sort_order": 0,
        "type": "string",
        "video_id": "string",
        "length": "string"
      }
    ]
  },
  "meta": {
    "pagination": {
      "total": 246,
      "count": 5,
      "per_page": 5,
      "current_page": 1,
      "total_pages": 50,
      "links": {
        "previous": "?limit=5&page=2",
        "current": "?limit=5&page=3",
        "next": "?limit=5&page=4"
      }
    }
  }
}
